module gitlab.com/sacules/curate

go 1.13

require (
	github.com/PuerkitoBio/goquery v1.5.0 // indirect
	github.com/antchfx/htmlquery v1.2.2 // indirect
	github.com/antchfx/xmlquery v1.2.3 // indirect
	github.com/antchfx/xpath v1.1.4 // indirect
	github.com/davecgh/go-spew v1.1.1 // indirect
	github.com/gobwas/glob v0.2.3 // indirect
	github.com/gocolly/colly v1.2.0
	github.com/golang/groupcache v0.0.0-20191227052852-215e87163ea7 // indirect
	github.com/kennygrant/sanitize v1.2.4 // indirect
	github.com/mattn/go-runewidth v0.0.10 // indirect
	github.com/rivo/uniseg v0.2.0 // indirect
	github.com/saintfish/chardet v0.0.0-20120816061221-3af4cd4741ca // indirect
	github.com/schollz/progressbar/v3 v3.7.3
	github.com/temoto/robotstxt v1.1.1 // indirect
	golang.org/x/net v0.0.0-20200114155413-6afb5195e5aa // indirect
	golang.org/x/sys v0.0.0-20210119212857-b64e53b001e4 // indirect
	google.golang.org/appengine v1.6.5 // indirect
)
